// Jest Snapshot v1, https://goo.gl/fbAQLP

exports[`CharactersPane Render test 1`] = `
<View
  style={
    Object {
      "alignItems": "center",
      "flex": 1,
      "justifyContent": "center",
      "paddingTop": 50,
    }
  }
>
  <Text>
    CharactersListApolloWrapperMock
  </Text>
</View>
`;
